Likelihood of impact occurrence
…
6 Logistic regression

The figures were just created are simplified analogies of logistic regression, which is the statistical method for modeling the relationship bweten binary (TRUE/FALSE) data and a set of predictor variables. Please keep this visual analogy in mind as we proceed with a more formal, statistical analysis using logistic regression to relate German agricultural impacts (binary data) with drought indices (predictor variables). For more details on logistic regression, see Chapter 7.

The first step for any regression is to organize the response (impacts) and predictor (SPI/SPEI) variables into columns that correspond to individual observations. We do this using the spread command.

### Create data for fitting, leave only SPI12
fit_data <- spi_impacts %>%
    select(date, year, month, index, index_val, impact) %>%
    spread(index, index_val)

### Check data
fit_data

## # A tibble: 43 x 8
##    date        year month impact spei_12   spei_3  spi_12   spi_3
##    <date>     <dbl> <dbl> <lgl>    <dbl>    <dbl>   <dbl>   <dbl>
##  1 1970-07-01  1970     7 FALSE    0.364 -0.211    0.378  -0.0826
##  2 1971-07-01  1971     7 FALSE   -0.605 -0.171   -0.402   0.204 
##  3 1972-07-01  1972     7 FALSE   -0.741  1.05    -0.931   1.01  
##  4 1973-07-01  1973     7 FALSE   -0.758 -0.175   -1.27   -0.337 
##  5 1974-07-01  1974     7 FALSE   -0.295  1.14    -0.521   0.353 
##  6 1975-07-01  1975     7 FALSE    1.25   0.0892   0.979  -0.294 
##  7 1976-07-01  1976     7 TRUE    -1.88  -1.85    -1.67   -1.64  
##  8 1977-07-01  1977     7 FALSE   -0.299 -0.415   -0.453  -0.592 
##  9 1978-07-01  1978     7 FALSE    0.274  0.00736  0.0714 -0.0304
## 10 1979-07-01  1979     7 FALSE    0.763 -0.328    0.477  -0.339 
## # … with 33 more rows
…
