Base Flow Index
…
2 Calculation

The daily flows, \(Q\) m3s-1, are divided into non-overlapping blocks of five days (Column 1 and 2).

ray <- ray %>%
  mutate(
    block = ((row_number() - 1) %/% 5) + 1
  ) %>%
  print()

## # A tibble: 1,096 x 4
##    time       discharge  year block
##    <date>         <dbl> <dbl> <dbl>
##  1 1995-01-01     0.109  1995     1
##  2 1995-01-02     0.063  1995     1
##  3 1995-01-03     0.043  1995     1
##  4 1995-01-04     0.039  1995     1
##  5 1995-01-05     0.229  1995     1
##  6 1995-01-06     0.186  1995     2
##  7 1995-01-07     0.116  1995     2
##  8 1995-01-08     0.111  1995     2
##  9 1995-01-09     0.095  1995     2
## 10 1995-01-10     0.123  1995     2
## # … with 1,086 more rows
…
Join the turning points by straight lines to form the base flow separation line and assign to each day a base flow value \(Q_b\), by linear interpolation between the turning points. If, on any day, the base flow estimated by this line exceeds the total flow, the base flow is set to be equal to the total flow \(Q\), on that day.

tp <- points %>%
  filter(is.turning.point) %>%
  select(time, Qmin) %>%
  print()

## # A tibble: 110 x 2
##    time        Qmin
##    <date>     <dbl>
##  1 1995-01-16 0.054
##  2 1995-02-07 0.1  
##  3 1995-02-19 0.188
##  4 1995-03-01 0.126
##  5 1995-03-26 0.022
##  6 1995-04-13 0.004
##  7 1995-04-21 0.003
##  8 1995-05-03 0.003
##  9 1995-05-06 0.003
## 10 1995-05-11 0.003
## # … with 100 more rows
…
The volume beneath the base flow line, \(V_{base}\), for 1996 is found to be 348 494.5 m3, whereas the volume of the total flow, \(V_{total}\), is 1 721 693 m3. The resultant BFI is 0.2. The base flow separation line for River Ray in 1996 is shown in Figure 5.4 of the book.

4 Fast Track

The base flow for a given time series can also be calculated directely using the function baseflow(), optionally with a different choice of the block length or the reduction factor for the central value. The default values are tp.factor = 0.9 and block.len = 5.

bf <- ray %>%
  select(time, discharge) %>%
  mutate(
    baseflow = baseflow(discharge, tp.factor = 0.9, block.len = 5)
    ) %>%
  filter(year(time) == 1996) %>%
  print()

## # A tibble: 366 x 3
##    time       discharge baseflow
##    <date>         <dbl>    <dbl>
##  1 1996-01-01     0.19    0.0332
##  2 1996-01-02     0.224   0.0326
##  3 1996-01-03     0.189   0.0320
##  4 1996-01-04     0.145   0.0314
##  5 1996-01-05     0.221   0.0308
##  6 1996-01-06     0.385   0.0302
##  7 1996-01-07     0.567   0.0296
##  8 1996-01-08     0.463   0.0291
##  9 1996-01-09     1.38    0.0285
## 10 1996-01-10     0.475   0.0279
## # … with 356 more rows
…
