Low flow frequency analysis
…
ngaruroro <- international %>%
  filter(river == "Ngaruroro") %>%
  select(data) %>%
  unnest(data) %>%
  # linear interpolation of periods of missing values 
  # with a duration of up to 15 days
  sanitize_ts(approx.missing = 15) %>%
   mutate(
    year = water_year(time, origin = "-09-01")
    ) %>%
  print()

## # A tibble: 20,473 x 3
##    time       discharge  year
##    <date>         <dbl> <dbl>
##  1 1963-09-20      30.5  1963
##  2 1963-09-21      52.8  1963
##  3 1963-09-22      43.6  1963
##  4 1963-09-23      37.3  1963
##  5 1963-09-24      32.3  1963
##  6 1963-09-25      29.0  1963
##  7 1963-09-26      25.3  1963
##  8 1963-09-27      22.4  1963
##  9 1963-09-28      19.9  1963
## 10 1963-09-29      18.2  1963
## # … with 20,463 more rows
…
ngaruroro <- ngaruroro %>%
    anti_join(incomplete, by = "year")

# derivation of the annual minima
am <- annual_minima(
  discharge = ngaruroro$discharge, 
  time = ngaruroro$time, 
  origin = "-09-01"
  ) %>%
  rename(flow = am) %>%
  arrange(flow) %>%
  print()

## # A tibble: 50 x 2
##     year  flow
##    <dbl> <dbl>
##  1  2014  2.17
##  2  2012  2.34
##  3  1982  2.46
##  4  2008  2.53
##  5  1977  2.59
##  6  2007  2.64
##  7  1972  2.66
##  8  2004  2.68
##  9  1973  2.88
## 10  2003  2.99
## # … with 40 more rows
…
A probability plot for the \(AM(1)\) values is obtained by plotting the flow values against \(F(x)\) as demonstrated in Figure 6.10 (upper). A staircase pattern of several nearly equal values is observed. (Note that the \(AM(1)\) values now are plotted on the \(y\)-axis as compared to Figure 6.3, lower).

The return period ('rp.emp') of the smallest event can be calculated following Equation 6.5. The non-exceedance frequency, \(F(x)\), of the smallest event equals 0.02 according to step 2(b), which gives a return period of 51 years.

empirical <- am %>%
  mutate(
    rank = rank(flow),
    prob.emp = rank / (n() + 1),
    rp.emp = 1 / prob.emp
  ) %>%
  arrange(rank)  

print(empirical)

## # A tibble: 50 x 5
##     year  flow  rank prob.emp rp.emp
##    <dbl> <dbl> <dbl>    <dbl>  <dbl>
##  1  2014  2.17     1   0.0196  51   
##  2  2012  2.34     2   0.0392  25.5 
##  3  1982  2.46     3   0.0588  17   
##  4  2008  2.53     4   0.0784  12.8 
##  5  1977  2.59     5   0.0980  10.2 
##  6  2007  2.64     6   0.118    8.5 
##  7  1972  2.66     7   0.137    7.29
##  8  2004  2.68     8   0.157    6.38
##  9  1973  2.88     9   0.176    5.67
## 10  2003  2.99    10   0.196    5.1 
## # … with 40 more rows
…
4 Estimation of T-year events

The non-exceedance frequency of the smallest value equals 0.0472 (Equation A6.1.33), which gives a return period of 21.2 years (Equation 6.5). This is 29.8 years less that the empirical estimate derived in step 2(d).

fitted

## # A tibble: 50 x 5
##     year  flow prob.emp prob.wei rp.wei
##    <dbl> <dbl>    <dbl>    <dbl>  <dbl>
##  1  2014  2.17   0.0196   0.0472  21.2 
##  2  2012  2.34   0.0392   0.0644  15.5 
##  3  1982  2.46   0.0588   0.0806  12.4 
##  4  2008  2.53   0.0784   0.0913  11.0 
##  5  1977  2.59   0.0980   0.101    9.91
##  6  2007  2.64   0.118    0.109    9.20
##  7  1972  2.66   0.137    0.113    8.84
##  8  2004  2.68   0.157    0.115    8.67
##  9  1973  2.88   0.176    0.158    6.34
## 10  2003  2.99   0.196    0.184    5.45
## # … with 40 more rows
…
6 Probability plot using the exponential reduced variate

The two-parameter EXP (Equation A6.1.64) and the WEI distribution are compared using the exponential reduced variable (Box 6.4).

fitted.fast <- am %>%
  mutate(
    prob.emp = rank(flow) / (n() + 1),
    prob.wei = cdfwei(x = flow, para = pelwei(lmom, bound = 0)),
    prob.exp = cdfexp(x = flow, para = pelexp(lmom))
  ) %>% 
  arrange(flow) %>%
  print()

## # A tibble: 50 x 5
##     year  flow prob.emp prob.wei prob.exp
##    <dbl> <dbl>    <dbl>    <dbl>    <dbl>
##  1  2014  2.17   0.0196   0.0472   0     
##  2  2012  2.34   0.0392   0.0644   0     
##  3  1982  2.46   0.0588   0.0806   0     
##  4  2008  2.53   0.0784   0.0913   0     
##  5  1977  2.59   0.0980   0.101    0     
##  6  2007  2.64   0.118    0.109    0     
##  7  1972  2.66   0.137    0.113    0     
##  8  2004  2.68   0.157    0.115    0     
##  9  1973  2.88   0.176    0.158    0.0876
## 10  2003  2.99   0.196    0.184    0.173 
## # … with 40 more rows
…
