Low flow frequency analysis (dataset from first edition)
…
River Ngaruroro at Kuripapango in New Zealand (Table 4.3), has been selected for frequency analysis of annual minimum 1-day values, \(AM(1)\), using the Weibull (WEI) distribution. In mid-latitudes in the Northern Hemisphere the calendar year can often be used to select the annual minimum flows. This is a suitable period for the selection of independent events as the drought or low flow period commonly occurs during the summer months. In the Southern Hemisphere the low flow season occurs at the opposite time of the year, and for Ngaruroro the lowest flows are typically found in the period November to May. As a result \(AM(1)\) flows were selected for a hydrological year starting at the 1st September.

11 Tobias: Right now the old dataset is used to make sure we can reporoduce the numbers from the first edition. Changing to the new dataset will change the results quite a little.

library(tidyverse)
library(hydroDrought)
ngaruroro <- hydroDrought:::ngFirstEdition %>%
  mutate(
    year = water_year(time, origin = "-09-01")
  ) %>%
  filter(year >= 1964, year < 2000) %>%
  print()

## # A tibble: 13,149 x 3
##    time       discharge  year
##    <date>         <dbl> <dbl>
##  1 1964-09-01     10.8   1964
##  2 1964-09-02     12.0   1964
##  3 1964-09-03     11.2   1964
##  4 1964-09-04     10.4   1964
##  5 1964-09-05      9.90  1964
##  6 1964-09-06      9.97  1964
##  7 1964-09-07      9.97  1964
##  8 1964-09-08     10.5   1964
##  9 1964-09-09     16.2   1964
## 10 1964-09-10     18.4   1964
## # … with 13,139 more rows
…
Ngaruroro has a flashy river regime, but has no observed zero flows. The \(AM(1)\) flows are considered to come from the same population as only a minor part of the catchment is influenced by snow in winter. The observations cover the period 1964 to 1964 and with the omission of 5 years (1965, 1978, 1986, 1987 and 2000) with missing data a total of 32 values results. A histogram of the values is shown in Figure 6.3 (upper left). To test the assumption of stationarity the \(AM(1)\) values are plotted against time in Figure 6.9. No trend can be detected in the series and the data are therefore assumed to fulfil the requirement of independent and identically distributed data (iid).

2 Derivation of an empirical distribution function

empirical <- am %>%
  mutate(
    rank = rank(flow),
    prob.emp = rank / (n() + 1),
    rp.emp = 1 / prob.emp
  ) %>%
  arrange(rank)  %>%
  print()

## # A tibble: 32 x 5
##     year  flow  rank prob.emp rp.emp
##    <dbl> <dbl> <dbl>    <dbl>  <dbl>
##  1  1977  2.60     1   0.0303  33   
##  2  1982  2.69     2   0.0606  16.5 
##  3  1972  2.78     3   0.0909  11   
##  4  1973  3.02     4   0.121    8.25
##  5  1967  3.21     5   0.152    6.6 
##  6  1993  3.24     6   0.182    5.5 
##  7  1997  3.38     7   0.212    4.71
##  8  1981  3.42     8   0.242    4.12
##  9  1992  3.81     9   0.273    3.67
## 10  1968  3.83    10   0.303    3.3 
## # … with 22 more rows
…
44 Tobias: The plot doesn’t show quantiles (as mentioned in the first edition where it is called a QQ-Plot), but probabilities… 

The data can be plotted in a probability plot and compared to the empirical quantiles in step 2(b) (Figure 6.10, upper). The plot shows that the WEI distribution is well adjusted to the low flow extreme values, whereas the deviation in the upper range might suggest that the three highest values do not belong to the low flow population (Section 6.3.3). In Figure 6.10 (lower) the empirical quantiles are plotted against the estimated distribution quantiles (qq-plot). The points should be close to the unit diagonal if the data fit the WEI distribution well. The use of a plotting position implies that the ordered sample is plotted in regularly spaced positions. As demonstrated in the figure, the observed jumps in \(AM(1)\) values are reflected in the estimated Weibull quantiles, but not in the empirical quantiles.

The non-exceedance frequency of the smallest value equals 0.0441 (Equation A6.1.33), which gives a return period of 22.7 years (Equation 6.5). This is 10.3 years less that the empirical estimate derived in step 2(d).

fitted

## # A tibble: 32 x 5
##     year  flow prob.emp prob.wei rp.wei
##    <dbl> <dbl>    <dbl>    <dbl>  <dbl>
##  1  1977  2.60   0.0303   0.0441  22.7 
##  2  1982  2.69   0.0606   0.0539  18.5 
##  3  1972  2.78   0.0909   0.0647  15.4 
##  4  1973  3.02   0.121    0.102    9.80
##  5  1967  3.21   0.152    0.142    7.02
##  6  1993  3.24   0.182    0.151    6.64
##  7  1997  3.38   0.212    0.186    5.39
##  8  1981  3.42   0.242    0.199    5.04
##  9  1992  3.81   0.273    0.340    2.94
## 10  1968  3.83   0.303    0.348    2.87
## # … with 22 more rows
…
## [1] 2.19 1.93

5 Probability plot using the exponential reduced variate

fitted.fast <- am %>%
  mutate(
    prob.emp = rank(flow) / (n() + 1),
    prob.wei = cdfwei(x = flow, para = pelwei(lmom, bound = 0)),
    prob.exp = cdfexp(x = flow, para = pelexp(lmom))
  ) %>% 
  arrange(flow) %>%
  print()

## # A tibble: 32 x 5
##     year  flow prob.emp prob.wei prob.exp
##    <dbl> <dbl>    <dbl>    <dbl>    <dbl>
##  1  1977  2.60   0.0303   0.0505   0     
##  2  1982  2.69   0.0606   0.0612   0     
##  3  1972  2.78   0.0909   0.0727   0     
##  4  1973  3.02   0.121    0.112    0     
##  5  1967  3.21   0.152    0.153    0.0764
##  6  1993  3.24   0.182    0.162    0.108 
##  7  1997  3.38   0.212    0.197    0.221 
##  8  1981  3.42   0.242    0.210    0.255 
##  9  1992  3.81   0.273    0.349    0.503 
## 10  1968  3.83   0.303    0.357    0.513 
## # … with 22 more rows
…
