Drought deficit frequency analysis
…
tbl <- droughts %>%
  transmute(
    event, year, first.day, last.day, 
    duration = as.double(duration, units = "days"),
    real.duration = dbt, 
    volume = volume / 1e3,
    rel.volume = volume / (17.30839 * 86.4),
    # rel.volume = as.difftime(round(rel.volume, 2), unit = "days"), 
    average.deficit = volume / duration
  ) %>%
  print()

## # A tibble: 172 x 9
##    event year  first.day  last.day   duration real.duration  volume rel.volume
##    <int> <fct> <date>     <date>        <dbl> <drtn>          <dbl>      <dbl>
##  1     1 1966  1967-04-23 1967-04-23        1  1 days       3.54e+0   0.00237 
##  2     2 1966  1967-04-26 1967-04-26        1  1 days       1.81e+0   0.00121 
##  3     3 1966  1967-05-09 1967-05-10        2  2 days       1.19e+1   0.00797 
##  4     4 1966  1967-05-14 1967-05-14        1  1 days       1.39e+1   0.00930 
##  5     5 1966  1967-05-23 1967-05-23        1  1 days       2.59e-1   0.000173
##  6     6 1967  1968-02-07 1968-02-08        2  2 days       2.91e+1   0.0195  
##  7     7 1967  1968-02-18 1968-03-08       20 20 days       1.71e+3   1.14    
##  8     8 1967  1968-03-11 1968-04-02       23 23 days       2.29e+3   1.53    
##  9     9 1967  1968-04-06 1968-04-09        4  4 days       2.83e+2   0.189   
## 10    10 1968  1969-03-25 1969-04-03       10  9 days       1.72e+2   0.115   
## # … with 162 more rows, and 1 more variable: average.deficit <dbl>
…
