Drought deficit frequency analysis
…
3 Calculation of the T-year event

4 Manual computation

1 Data

River Ngaruroro at Kuripapango in New Zealand, applied for frequency analysis of annual minimum series in Worked Example 6.1, is here applied for frequency analysis of drought deficit characteristics.

library(tidyverse)
library(hydroDrought)

pooled

## # A tibble: 100 x 5
##    event  year first.day  duration volume
##    <int> <dbl> <date>        <dbl>  <dbl>
##  1     7  1967 1968-02-17       21  1767.
##  2     8  1967 1968-03-11       23  2350.
##  3    10  1968 1969-03-25        9   197.
##  4    11  1968 1969-04-06       13   786.
##  5    13  1969 1969-11-17        6   241.
##  6    15  1969 1970-01-25       14   578.
##  7    16  1969 1970-02-28       17   981.
##  8    17  1970 1970-12-08        7   130.
##  9    24  1970 1972-02-03        7   297.
## 10    25  1970 1972-02-13       20  1394.
## # … with 90 more rows
…
