Drought deficit frequency analysis
…
tbl <- droughts %>%
  transmute(
    event, year, first.day, last.day, 
    duration = as.double(duration, units = "days"),
    real.duration = dbt, 
    volume = volume / 1e3,
    rel.volume = volume / (17.30839 * 86.4),
    # rel.volume = as.difftime(round(rel.volume, 2), unit = "days"), 
    average.deficit = volume / duration
  ) %>%
  print()

## # A tibble: 172 x 9
##    event  year first.day  last.day   duration real.duration  volume rel.volume
##    <int> <dbl> <date>     <date>        <dbl> <drtn>          <dbl>      <dbl>
##  1     1  1966 1967-04-23 1967-04-23        1  1 days       3.54e+0   0.00237 
##  2     2  1966 1967-04-26 1967-04-26        1  1 days       1.81e+0   0.00121 
##  3     3  1966 1967-05-09 1967-05-10        2  2 days       1.19e+1   0.00797 
##  4     4  1966 1967-05-14 1967-05-14        1  1 days       1.39e+1   0.00930 
##  5     5  1966 1967-05-23 1967-05-23        1  1 days       2.59e-1   0.000173
##  6     6  1967 1968-02-07 1968-02-08        2  2 days       2.91e+1   0.0195  
##  7     7  1967 1968-02-18 1968-03-08       20 20 days       1.71e+3   1.14    
##  8     8  1967 1968-03-11 1968-04-02       23 23 days       2.29e+3   1.53    
##  9     9  1967 1968-04-06 1968-04-09        4  4 days       2.83e+2   0.189   
## 10    10  1968 1969-03-25 1969-04-03       10  9 days       1.72e+2   0.115   
## # … with 162 more rows, and 1 more variable: average.deficit <dbl>
…
1.1 Derivation of PDS and annual maxima series

11 Comment Tobias: Threshold of 10 is just a suggestion. This way the length of PDS and AMS do not differ very much. 

threshold <- 10
pds <- tbl %>%
  select(event, year, duration, first.day, last.day) %>%
  filter(duration > threshold) %>%
  print()

## # A tibble: 58 x 5
##    event  year duration first.day  last.day  
##    <int> <dbl>    <dbl> <date>     <date>    
##  1     7  1967       20 1968-02-18 1968-03-08
##  2     8  1967       23 1968-03-11 1968-04-02
##  3    11  1968       13 1969-04-06 1969-04-18
##  4    14  1969       15 1970-01-25 1970-02-08
##  5    15  1969       17 1970-02-28 1970-03-16
##  6    24  1971       21 1972-02-13 1972-03-04
##  7    27  1972       22 1972-12-18 1973-01-08
##  8    29  1972       46 1973-01-26 1973-03-12
##  9    31  1972       15 1973-03-19 1973-04-02
## 10    32  1972       16 1973-04-05 1973-04-20
## # … with 48 more rows

ams <- tbl %>%
  select(event, year, duration, first.day, last.day) %>%
  group_by(year) %>%
  slice_max(duration, with_ties = FALSE) %>%
  right_join(complete %>% select(year), by = "year") %>%
  ungroup() %>%
  replace_na(replace = list(duration = 0)) %>%
  arrange(year) %>%
  print()

## # A tibble: 50 x 5
##    event  year duration first.day  last.day  
##    <int> <dbl>    <dbl> <date>     <date>    
##  1    NA  1964        0 NA         NA        
##  2     3  1966        2 1967-05-09 1967-05-10
##  3     8  1967       23 1968-03-11 1968-04-02
##  4    11  1968       13 1969-04-06 1969-04-18
##  5    15  1969       17 1970-02-28 1970-03-16
##  6    16  1970        7 1970-12-08 1970-12-14
##  7    24  1971       21 1972-02-13 1972-03-04
##  8    29  1972       46 1973-01-26 1973-03-12
##  9    35  1973       57 1974-01-20 1974-03-17
## 10    36  1974        5 1975-02-21 1975-02-25
## # … with 40 more rows
…
