Linear trend analysis
…
### Filter to the rivers and create columns for dates
flow_df <- international %>%
    filter(river == "Elbe" | river == "Gota") %>%
    select(river, data) %>%
    unnest(cols = data) %>%
    mutate(
        year = year(time),
        jdate = yday(time)
    )  %>%
    print()

## # A tibble: 114,031 x 5
##    river time       discharge  year jdate
##    <chr> <date>         <dbl> <dbl> <dbl>
##  1 Gota  1850-01-01       506  1850     1
##  2 Gota  1850-01-02       506  1850     2
##  3 Gota  1850-01-03       502  1850     3
##  4 Gota  1850-01-04       502  1850     4
##  5 Gota  1850-01-05       502  1850     5
##  6 Gota  1850-01-06       502  1850     6
##  7 Gota  1850-01-07       496  1850     7
##  8 Gota  1850-01-08       496  1850     8
##  9 Gota  1850-01-09       496  1850     9
## 10 Gota  1850-01-10       496  1850    10
## # … with 114,021 more rows

### Group by year and river and then calculate min and mean flow
flow_annual <- flow_df %>%
    group_by(river, year) %>%
    summarise(min_m3s = min(discharge, na.rm=TRUE), mean_m3s=mean(discharge, na.rm=TRUE), .groups = "drop_last") %>%
    print()

## # A tibble: 313 x 4
## # Groups:   river [2]
##    river  year min_m3s mean_m3s
##    <chr> <dbl>   <dbl>    <dbl>
##  1 Elbe   1875     230     583.
##  2 Elbe   1876     237     912.
##  3 Elbe   1877     296     695.
##  4 Elbe   1878     296     636.
##  5 Elbe   1879     327     805.
##  6 Elbe   1880     330     823.
##  7 Elbe   1881     327     918.
##  8 Elbe   1882     345     735.
##  9 Elbe   1883     298     724.
## 10 Elbe   1884     292     680.
## # … with 303 more rows
…
### Insert columns for trend fit and residuals
elbe_annual <- elbe_annual %>%
    mutate(fitted = fitted(elbe_lm)) %>%
    mutate(resid = resid(elbe_lm)) %>%
    print()

## # A tibble: 144 x 6
## # Groups:   river [1]
##    river  year min_m3s mean_m3s fitted resid
##    <chr> <dbl>   <dbl>    <dbl>  <dbl> <dbl>
##  1 Elbe   1875     230     583.   274. -43.7
##  2 Elbe   1876     237     912.   274. -36.6
##  3 Elbe   1877     296     695.   274.  22.4
##  4 Elbe   1878     296     636.   274.  22.4
##  5 Elbe   1879     327     805.   274.  53.5
##  6 Elbe   1880     330     823.   273.  56.5
##  7 Elbe   1881     327     918.   273.  53.6
##  8 Elbe   1882     345     735.   273.  71.6
##  9 Elbe   1883     298     724.   273.  24.6
## 10 Elbe   1884     292     680.   273.  18.7
## # … with 134 more rows
…
##     Min      1Q  Median      3Q     Max 
## -60.468 -22.089  -4.605  17.556  90.773 
## 
## Coefficients:
##               Estimate Std. Error t value Pr(>|t|)    
## (Intercept) -2527.3124   331.5982  -7.622 5.82e-11 ***
## year            1.3387     0.1675   7.992 1.14e-11 ***
## ---
## Signif. codes:  0 '***' 0.001 '**' 0.01 '*' 0.05 '.' 0.1 ' ' 1
## 
## Residual standard error: 33.31 on 76 degrees of freedom
## Multiple R-squared:  0.4567, Adjusted R-squared:  0.4495 
## F-statistic: 63.88 on 1 and 76 DF,  p-value: 1.139e-11

## # A tibble: 78 x 6
## # Groups:   river [1]
##    river  year min_m3s mean_m3s fitted  resid
##    <chr> <dbl>   <dbl>    <dbl>  <dbl>  <dbl>
##  1 Gota   1941     147     426.   71.2  75.8 
##  2 Gota   1942      90     306.   72.5  17.5 
##  3 Gota   1943      56     361.   73.9 -17.9 
##  4 Gota   1944     100     484.   75.2  24.8 
##  5 Gota   1945     100     696.   76.5  23.5 
##  6 Gota   1946      92     332.   77.9  14.1 
##  7 Gota   1947     102     462.   79.2  22.8 
##  8 Gota   1948      88     263.   80.5   7.45
##  9 Gota   1949      70     402.   81.9 -11.9 
## 10 Gota   1950     111     638.   83.2  27.8 
## # … with 68 more rows
…
