Non-Parametric Trends
…
### Filter to the rivers and create columns for dates
flow_df <- international %>%
    filter(river == "Gota") %>%
    dplyr::select(river, data) %>%
    unnest(cols = data) %>%
    mutate(
        year = year(time),
        jdate = yday(time)
    )  %>%
    print()

## # A tibble: 61,498 x 5
##    river time       discharge  year jdate
##    <chr> <date>         <dbl> <dbl> <dbl>
##  1 Gota  1850-01-01       506  1850     1
##  2 Gota  1850-01-02       506  1850     2
##  3 Gota  1850-01-03       502  1850     3
##  4 Gota  1850-01-04       502  1850     4
##  5 Gota  1850-01-05       502  1850     5
##  6 Gota  1850-01-06       502  1850     6
##  7 Gota  1850-01-07       496  1850     7
##  8 Gota  1850-01-08       496  1850     8
##  9 Gota  1850-01-09       496  1850     9
## 10 Gota  1850-01-10       496  1850    10
## # … with 61,488 more rows

### Group by year and river and then calculate min annual flow
flow_annual <- flow_df %>%
    group_by(river, year) %>%
    summarise(min_m3s = min(discharge, na.rm=TRUE), .groups = "drop_last") %>%
    print() %>%
    ungroup()

## # A tibble: 169 x 3
## # Groups:   river [1]
##    river  year min_m3s
##    <chr> <dbl>   <dbl>
##  1 Gota   1850     471
##  2 Gota   1851     500
##  3 Gota   1852     565
##  4 Gota   1853     591
##  5 Gota   1854     347
##  6 Gota   1855     316
##  7 Gota   1856     366
##  8 Gota   1857     401
##  9 Gota   1858     316
## 10 Gota   1859     310
## # … with 159 more rows
…
