Rank and correlation coefficients: Worked example 5.8
…
6 Results

1 Loading the Data

29 time series of at between 35 and 65 years of daily river flow from the Regional Data Set are analysed.

library(tidyverse)
library(hydroDrought) 

r <- regional %>%
  select(id, river, station, data = discharge) %>%
  print()

## # A tibble: 29 x 4
##    id     river       station          data                 
##    <chr>  <chr>       <chr>            <list>               
##  1 210039 Rabnitz     Piringsdorf      <tibble [16,436 × 2]>
##  2 210054 Rabnitz     Mannersdorf      <tibble [18,262 × 2]>
##  3 210062 Stoob       Oberpullendorf   <tibble [18,262 × 2]>
##  4 210088 Wulka       Wulkaprodersdorf <tibble [18,262 × 2]>
##  5 210211 Lafnitz     Dobersdorf       <tibble [23,741 × 2]>
##  6 210237 Pinka       Woppendorf       <tibble [23,741 × 2]>
##  7 210245 Tauchenbach Altschlaining    <tibble [18,262 × 2]>
##  8 210252 Tauchenbach Hannersdorf      <tibble [23,741 × 2]>
##  9 210286 Strem       Güssing          <tibble [14,610 × 2]>
## 10 210294 Strem       Heiligenbrunn    <tibble [23,741 × 2]>
## # … with 19 more rows
…
# derived indices
indices <- indices %>%
  mutate(
    `Q90/Q50` = Q90/Q50,
    `Q95/Q50` = Q95/Q50,
    `MAM(30)/Q50` = `MAM(30)`/Q50,
    `MAM(10)/Q50` = `MAM(10)`/Q50,
    `MAM(1)/Q50` = `MAM(1)`/Q50,
  ) 

⊕Table 5.11 Flow indices for a subset of the Regional Data Set.

## # A tibble: 29 x 15
##    id     mean   Q50 `MAM(1)` `MAM(10)` `MAM(30)`   Q95   Q90   Q70 ALPHA `Q90/Q50` `Q95/Q50`
##    <chr> <dbl> <dbl>    <dbl>     <dbl>     <dbl> <dbl> <dbl> <dbl> <dbl>     <dbl>     <dbl>
##  1 2100… 0.615 0.443    0.144     0.179     0.220 0.132 0.178 0.31  0.248     0.402     0.298
##  2 2100… 0.913 0.68     0.274     0.320     0.373 0.257 0.311 0.49  0.545     0.457     0.378
##  3 2100… 0.613 0.429    0.129     0.164     0.216 0.14  0.179 0.305 0.472     0.417     0.326
##  4 2100… 0.548 0.414    0.197     0.227     0.262 0.15  0.191 0.299 0.419     0.461     0.362
##  5 2102… 6.47  4.91     2.43      2.75      3.08  2.44  2.83  3.86  0.261     0.576     0.497
##  6 2102… 2.30  1.59     0.596     0.804     0.939 0.66  0.8   1.2   0.388     0.503     0.415
##  7 2102… 0.409 0.348    0.166     0.183     0.201 0.124 0.159 0.255 0.196     0.457     0.356
##  8 2102… 0.692 0.52     0.209     0.246     0.293 0.18  0.236 0.39  0.401     0.454     0.346
##  9 2102… 1.08  0.513    0.168     0.199     0.263 0.167 0.216 0.368 0.748     0.421     0.326
## 10 2102… 1.47  0.67     0.211     0.262     0.334 0.214 0.271 0.47  0.597     0.404     0.319
## # … with 19 more rows, and 3 more variables: `MAM(30)/Q50` <dbl>, `MAM(10)/Q50` <dbl>,
## #   `MAM(1)/Q50` <dbl>
…
