Quantifying effect of human influences
…
Calculate drought characteristics for the human-influenced time series, using the benchmark threshold

Compare drought characteristics between the benchmark & human-influenced time series

1 Loading the data

As an example we here use the Upper-Guadiana dataset with the two time series: the benchmark time series and the human-influenced time series.

library(tidyverse)
library(hydroDrought)

print(guadiana)

## # A tibble: 15,249 x 3
##    time        Qsim  Qobs
##    <date>     <dbl> <dbl>
##  1 1960-01-01 0.153 0.146
##  2 1960-01-02 0.148 0.146
##  3 1960-01-03 0.144 0.143
##  4 1960-01-04 0.14  0.154
##  5 1960-01-05 0.136 0.148
##  6 1960-01-06 0.133 0.154
##  7 1960-01-07 0.13  0.154
##  8 1960-01-08 0.128 0.148
##  9 1960-01-09 0.129 0.146
## 10 1960-01-10 0.139 0.133
## #  with 15,239 more rows
…
## [1] "1960-01-01" "2001-09-30"

22 Tobias: To simplify the code, should we subset the included dataset to the period of 1960-2000? Data outside this period is not used, as far as I can see

The benchmark time series comprises the uninfluenced, naturalized discharge \(Q_{sim}\). Note that benchmark time series can be calculated from a paired catchment analysis (Sect. XX), an upstream-downstream comparison (Sect. XX), model naturalisation (Sect. XX), or pre-post disturbance analysis (Sect. XX). The benchmark time series for this catchment are modeled as described in Sect. XX.

benchmark <- guadiana %>%
  select(time, discharge = Qsim) %>%
  mutate(
    year = water_year(time)
  ) %>%
  print()

## # A tibble: 15,249 x 3
##    time       discharge  year
##    <date>         <dbl> <dbl>
##  1 1960-01-01     0.153  1960
##  2 1960-01-02     0.148  1960
##  3 1960-01-03     0.144  1960
##  4 1960-01-04     0.14   1960
##  5 1960-01-05     0.136  1960
##  6 1960-01-06     0.133  1960
##  7 1960-01-07     0.13   1960
##  8 1960-01-08     0.128  1960
##  9 1960-01-09     0.129  1960
## 10 1960-01-10     0.139  1960
## #  with 15,239 more rows

The human-influenced time series is basically the time series of observed discharge \(Q_{obs}\) from the Upper-Guadiana catchment.

influenced <- guadiana %>%
  select(time, discharge = Qobs) %>%
  mutate(
    year = water_year(time)
  ) %>%print()

## # A tibble: 15,249 x 3
##    time       discharge  year
##    <date>         <dbl> <dbl>
##  1 1960-01-01     0.146  1960
##  2 1960-01-02     0.146  1960
##  3 1960-01-03     0.143  1960
##  4 1960-01-04     0.154  1960
##  5 1960-01-05     0.148  1960
##  6 1960-01-06     0.154  1960
##  7 1960-01-07     0.154  1960
##  8 1960-01-08     0.148  1960
##  9 1960-01-09     0.146  1960
## 10 1960-01-10     0.133  1960
## #  with 15,239 more rows
…
Here we are taking the benchmark time series. First we are smoothing the column discharge with a 30-day moving average. The threshold itself is calculated as a daily varying \(Q_{95}\) yielding a dataset with a row for each day of the year and the appropriate \(Q_{95}\) in the column named threshold.

threshold <- benchmark %>%
  # applying a 30-day moving average smoother
  mutate(discharge = moving_average(discharge, n = 30, sides = "center")) %>%
  
  # the following line could be obsolete
  filter(year >= 1960,  year <= 2000) %>%
  
  # computing the Q95 for each day of the year
  var_threshold(vary.by = "day", fun = lfquantile, exc.freq = 0.95) 

print(threshold)

## # A tibble: 366 x 2
##            day threshold
##    <month-day>     <dbl>
##  1      -01-01   0.0103 
##  2      -01-02   0.0100 
##  3      -01-03   0.00966
##  4      -01-04   0.00943
##  5      -01-05   0.00941
##  6      -01-06   0.00943
##  7      -01-07   0.00944
##  8      -01-08   0.00943
##  9      -01-09   0.00942
## 10      -01-10   0.0094 
## #  with 356 more rows
…
