Threshold
…
Use the threshold for the whole dataset. First we have to append a new column containing the groups we have calculated the threshold for (in our case months). Then the threshold will be joined based on that column.

# hydrological year starts in September (here only relevant for plotting)
grouped <- ngaruroro %>%
  mutate(
    month = group_ts(time = time, by = "month", origin = "-09-01")
  ) 

grouped

## # A tibble: 20,473 x 4
##    time       discharge  year month
##    <date>         <dbl> <dbl> <dbl>
##  1 1963-09-20      30.5  1963     9
##  2 1963-09-21      52.8  1963     9
##  3 1963-09-22      43.6  1963     9
##  4 1963-09-23      37.3  1963     9
##  5 1963-09-24      32.3  1963     9
##  6 1963-09-25      29.0  1963     9
##  7 1963-09-26      25.3  1963     9
##  8 1963-09-27      22.4  1963     9
##  9 1963-09-28      19.9  1963     9
## 10 1963-09-29      18.2  1963     9
## #  with 20,463 more rows

ng <- grouped %>%
  left_join(threshold, by = "month") %>%
  mutate(
    under.drought = discharge < threshold
  )

ng

## # A tibble: 20,473 x 6
##    time       discharge  year month threshold under.drought
##    <date>         <dbl> <dbl> <dbl>     <dbl> <lgl>        
##  1 1963-09-20      30.5  1963     9      15.2 FALSE        
##  2 1963-09-21      52.8  1963     9      15.2 FALSE        
##  3 1963-09-22      43.6  1963     9      15.2 FALSE        
##  4 1963-09-23      37.3  1963     9      15.2 FALSE        
##  5 1963-09-24      32.3  1963     9      15.2 FALSE        
##  6 1963-09-25      29.0  1963     9      15.2 FALSE        
##  7 1963-09-26      25.3  1963     9      15.2 FALSE        
##  8 1963-09-27      22.4  1963     9      15.2 FALSE        
##  9 1963-09-28      19.9  1963     9      15.2 FALSE        
## 10 1963-09-29      18.2  1963     9      15.2 FALSE        
## #  with 20,463 more rows
…
Daily varying threshold with smoothing

threshold <- ngaruroro %>%
  mutate(
    discharge = moving_average(discharge, n = 31, sides = "center")
  ) %>%
  filter(year >= 1970, year < 1990) %>%
  var_threshold(
    vary.by = "day", start = "-09-01", 
    fun = lfquantile, exc.freq = 0.8
  ) 

threshold

## # A tibble: 366 x 2
##            day threshold
##    <month-day>     <dbl>
##  1      -09-01      15.7
##  2      -09-02      15.5
##  3      -09-03      15.6
##  4      -09-04      15.8
##  5      -09-05      15.9
##  6      -09-06      15.4
##  7      -09-07      15.4
##  8      -09-08      15.5
##  9      -09-09      15.5
## 10      -09-10      15.4
## #  with 356 more rows

ng <- ngaruroro %>%
  mutate(
    day = group_ts(time = time, by = "day", origin = "-09-01")
  ) %>%
  left_join(threshold, by = "day") %>%
  print()

## # A tibble: 20,473 x 5
##    time       discharge  year         day threshold
##    <date>         <dbl> <dbl> <month-day>     <dbl>
##  1 1963-09-20      30.5  1963      -09-20      16.5
##  2 1963-09-21      52.8  1963      -09-21      16.8
##  3 1963-09-22      43.6  1963      -09-22      16.5
##  4 1963-09-23      37.3  1963      -09-23      15.7
##  5 1963-09-24      32.3  1963      -09-24      15.6
##  6 1963-09-25      29.0  1963      -09-25      15.3
##  7 1963-09-26      25.3  1963      -09-26      15.1
##  8 1963-09-27      22.4  1963      -09-27      14.8
##  9 1963-09-28      19.9  1963      -09-28      14.5
## 10 1963-09-29      18.2  1963      -09-29      14.4
## #  with 20,463 more rows
…
Fast Track

The functions var_threshold() and const_threshold() both accept an argument append = TRUE to facilitate the computation of the threshold using the entire time series and appending it.

ngaruroro %>%
  var_threshold(vary.by = "month", 
                fun = lfquantile, exc.freq = 0.8, 
                append = TRUE) 

## # A tibble: 20,473 x 5
##    time       discharge  year month threshold
##    <date>         <dbl> <dbl> <dbl>     <dbl>
##  1 1963-09-20      30.5  1963     9      11.8
##  2 1963-09-21      52.8  1963     9      11.8
##  3 1963-09-22      43.6  1963     9      11.8
##  4 1963-09-23      37.3  1963     9      11.8
##  5 1963-09-24      32.3  1963     9      11.8
##  6 1963-09-25      29.0  1963     9      11.8
##  7 1963-09-26      25.3  1963     9      11.8
##  8 1963-09-27      22.4  1963     9      11.8
##  9 1963-09-28      19.9  1963     9      11.8
## 10 1963-09-29      18.2  1963     9      11.8
## #  with 20,463 more rows
