7 Probability plot using the exponential reduced variate | A drought book thing
…
7 Probability plot using the exponential reduced variate

The two-parameter EXP (Equation A6.1.64) and the WEI distribution are compared
using the exponential reduced variable (Box 6.4).

fitted.fast <- am %>%
  mutate(
    prob.emp = rank(flow) / (n() + 1),
    prob.wei = cdfwei(x = flow, para = pelwei(lmom, bound = 0)),
    prob.exp = cdfexp(x = flow, para = pelexp(lmom))
  ) %>% 
  arrange(flow) %>%
  print()

## # A tibble: 50 x 5
##     year  flow prob.emp prob.wei prob.exp
##    <dbl> <dbl>    <dbl>    <dbl>    <dbl>
##  1  2014  2.17   0.0196   0.0472   0     
##  2  2012  2.34   0.0392   0.0644   0     
##  3  1982  2.46   0.0588   0.0806   0     
##  4  2008  2.53   0.0784   0.0913   0     
##  5  1977  2.59   0.0980   0.101    0     
##  6  2007  2.64   0.118    0.109    0     
##  7  1972  2.66   0.137    0.113    0     
##  8  2004  2.68   0.157    0.115    0     
##  9  1973  2.88   0.176    0.158    0.0876
## 10  2003  2.99   0.196    0.184    0.173 
## # … with 40 more rows
…
7.1 Worked Example 6.2: Drought deficit frequency analysis

7.1.1 Data

River Ngaruroro at Kuripapango in New Zealand, applied for frequency
analysis of annual minimum series in Worked Example 6.1, is here applied
for frequency analysis of drought deficit characteristics.

library(tidyverse)
library(hydroDrought)

pooled

## # A tibble: 100 x 5
##    event  year first.day  duration volume
##    <int> <dbl> <date>        <dbl>  <dbl>
##  1     7  1967 1968-02-17       21  1767.
##  2     8  1967 1968-03-11       23  2350.
##  3    10  1968 1969-03-25        9   197.
##  4    11  1968 1969-04-06       13   786.
##  5    13  1969 1969-11-17        6   241.
##  6    15  1969 1970-01-25       14   578.
##  7    16  1969 1970-02-28       17   981.
##  8    17  1970 1970-12-08        7   130.
##  9    24  1970 1972-02-03        7   297.
## 10    25  1970 1972-02-13       20  1394.
## # … with 90 more rows
…
