1 Chapter 5 | Hydrological Drought (2nd Edition)
…
1.3.2 Calculation

The daily flows, \(Q\) m3s-1, are divided into non-overlapping blocks of five days (Column 1 and 2, Table 5.7).

ray <- ray %>%
  mutate(
block = ((row_number() - 1) %/% 5) + 1
  ) %>%
  print()

## # A tibble: 1,096 x 4
##    time       discharge  year block
##    <date>         <dbl> <dbl> <dbl>
##  1 1995-01-01     0.109  1995     1
##  2 1995-01-02     0.063  1995     1
##  3 1995-01-03     0.043  1995     1
##  4 1995-01-04     0.039  1995     1
##  5 1995-01-05     0.229  1995     1
##  6 1995-01-06     0.186  1995     2
##  7 1995-01-07     0.116  1995     2
##  8 1995-01-08     0.111  1995     2
##  9 1995-01-09     0.095  1995     2
## 10 1995-01-10     0.123  1995     2
## # … with 1,086 more rows
…
The base flow for a given time series can also be calculated directly using the
function baseflow(), optionally with a different choice of the block length (\(N = x\) days) or
the turning point factor or parameter (\(TP\)) for the central value. The default
values are tp.factor = 0.9 and block.len = 5, which can be adopted to the
type of flow regime studied and changed accordingly by the user.

bf <- ray %>%
  dplyr::select(time, discharge) %>%
  mutate(
    baseflow = baseflow(discharge, tp.factor = 0.9, block.len = 5)
  ) %>%
  filter(year(time) == 1996) %>%
  print()

## # A tibble: 366 x 3
##    time       discharge baseflow
##    <date>         <dbl>    <dbl>
##  1 1996-01-01     0.19    0.0332
##  2 1996-01-02     0.224   0.0326
##  3 1996-01-03     0.189   0.0320
##  4 1996-01-04     0.145   0.0314
##  5 1996-01-05     0.221   0.0308
##  6 1996-01-06     0.385   0.0302
##  7 1996-01-07     0.567   0.0296
##  8 1996-01-08     0.463   0.0291
##  9 1996-01-09     1.38    0.0285
## 10 1996-01-10     0.475   0.0279
## # … with 356 more rows
…
q90 <- lfquantile(ngaruroro$discharge, exc.freq = 0.9) %>%
  print()

##   Q90 
## 4.949

droughts <- ngaruroro %>%
  drought_events(threshold = q90, pooling = "none") 

⊕Table 5.8 Drought deficit characteristics, River Ngaruroro at Kuripapango, NZ.

## # A tibble: 210 x 7
##    event first.day  last.day   duration   volume  qmin tqmin     
##    <int> <date>     <date>     <drtn>      <dbl> <dbl> <date>    
##  1     1 1967-04-23 1967-04-23  1 days     6307.  4.88 1967-04-23
##  2     2 1967-04-26 1967-04-26  1 days     4579.  4.90 1967-04-26
##  3     3 1967-05-09 1967-05-10  2 days    17453.  4.80 1967-05-10
##  4     4 1967-05-13 1967-05-14  2 days    18835.  4.76 1967-05-14
##  5     5 1967-05-23 1967-05-23  1 days     3024.  4.91 1967-05-23
##  6     6 1968-02-07 1968-02-08  2 days    34646.  4.69 1968-02-08
##  7     7 1968-02-17 1968-03-08 21 days  1766621.  3.44 1968-03-05
##  8     8 1968-03-11 1968-04-02 23 days  2349562.  3.23 1968-03-26
##  9     9 1968-04-06 1968-04-09  4 days   293933.  3.76 1968-04-08
## 10    10 1969-03-25 1969-03-30  6 days   103766.  4.68 1969-03-26
## # … with 200 more rows
…
a minimum drought deficit volume (coefficient \(\alpha\)), which removes droughts
with a deficit volume less than a certain fraction \(\alpha\) of the maximum
drought deficit volume observed in the complete series of drought events.

We will append a logical column called is.minor to the table of drought events.
It is TRUE when drought duration is less than five days OR if the drought volume is less than 5% of the maximum drought deficit volume (i.e., 51 133.25 m3). In total 99 droughts are considered minor, and thus removed, based on these criteria.

droughts <- droughts %>%
  mutate(is.minor = duration < 5 | volume < max(volume) * 0.005) 

print(droughts)

## # A tibble: 210 x 8
##    event first.day  last.day   duration   volume  qmin tqmin      is.minor
##    <int> <date>     <date>     <drtn>      <dbl> <dbl> <date>     <lgl>   
##  1     1 1967-04-23 1967-04-23  1 days     6307.  4.88 1967-04-23 TRUE    
##  2     2 1967-04-26 1967-04-26  1 days     4579.  4.90 1967-04-26 TRUE    
##  3     3 1967-05-09 1967-05-10  2 days    17453.  4.80 1967-05-10 TRUE    
##  4     4 1967-05-13 1967-05-14  2 days    18835.  4.76 1967-05-14 TRUE    
##  5     5 1967-05-23 1967-05-23  1 days     3024.  4.91 1967-05-23 TRUE    
##  6     6 1968-02-07 1968-02-08  2 days    34646.  4.69 1968-02-08 TRUE    
##  7     7 1968-02-17 1968-03-08 21 days  1766621.  3.44 1968-03-05 FALSE   
##  8     8 1968-03-11 1968-04-02 23 days  2349562.  3.23 1968-03-26 FALSE   
##  9     9 1968-04-06 1968-04-09  4 days   293933.  3.76 1968-04-08 TRUE    
## 10    10 1969-03-25 1969-03-30  6 days   103766.  4.68 1969-03-26 FALSE   
## # … with 200 more rows
…
In this example \(t_{min}\) is set equal to two days.

pooled <- ngaruroro %>%
  drought_events(
    threshold = q90, pooling = "inter-event", 
    pooling.pars = list(min.duration = 2, min.vol.ratio = Inf)
  ) %>%
  filter(duration >= 5, volume > max(volume) * 0.005) %>%
  arrange(desc(duration)) %>%
  print()

## # A tibble: 100 x 9
##    event first.day  last.day   duration dbt        volume  qmin tqmin      pooled
##    <int> <date>     <date>     <drtn>   <drtn>      <dbl> <dbl> <date>      <dbl>
##  1   166 2015-01-06 2015-03-15 69 days  69 days 10226650.  2.17 2015-03-04      0
##  2    37 1974-01-20 1974-03-17 57 days  56 days  6506957.  2.88 1974-03-15      1
##  3   138 2008-01-10 2008-03-01 52 days  51 days  6412608   2.64 2008-02-28      1
##  4    30 1973-01-26 1973-03-12 46 days  46 days  6583939.  2.66 1973-03-03      0
##  5    50 1983-02-16 1983-04-02 46 days  46 days  7381066.  2.46 1983-03-30      0
##  6   148 2009-03-14 2009-04-26 44 days  43 days  6008774.  2.53 2009-04-19      1
##  7   157 2013-02-07 2013-03-18 40 days  40 days  7089898.  2.38 2013-03-15      0
##  8   124 2005-02-06 2005-03-16 39 days  38 days  4987094.  2.68 2005-03-13      1
##  9   139 2008-03-09 2008-04-14 37 days  36 days  5215795.  2.65 2008-04-06      1
## 10    59 1989-04-01 1989-04-29 29 days  29 days  2706480   3.3  1989-04-29      0
## # … with 90 more rows
…
Key drought characteristics for all drought events occurring in the period (09.1963- 08.2020), can be summarized for different drought metrics. In the example below, for each year, the number of droughts in the year, the days below the threshold (summed over all events) in a year and the minimum flow in a year, are presented:

pooled %>%
  mutate(
    year = water_year(first.day, origin = "-09-01")
  ) %>%
  group_by(year) %>%
  summarise(
    n.droughts = n(),
    real.duration = sum(dbt), 
    min.flow = min(qmin)
  )

## # A tibble: 35 x 4
##     year n.droughts real.duration min.flow
##  * <dbl>      <int> <drtn>           <dbl>
##  1  1967          2  44 days          3.23
##  2  1968          2  22 days          3.88
##  3  1969          3  37 days          3.89
##  4  1970          3  34 days          3.73
##  5  1972          7 114 days          2.66
##  6  1973          2  63 days          2.88
##  7  1974          2  10 days          4.31
##  8  1975          2  18 days          4.09
##  9  1977          1  25 days          3.46
## 10  1982          2  57 days          2.46
## # … with 25 more rows
…
library(tidyverse)
library(hydroDrought)

ngaruroro <- international %>%
  filter(river == "Ngaruroro") %>%
  dplyr::select(data) %>%
  unnest(data) %>%
  mutate(
    year = water_year(time, origin = "-09-01")
  ) %>%
  filter(year >= 1988, year <= 1999) %>%
  print()

## # A tibble: 4,383 x 3
##    time       discharge  year
##    <date>         <dbl> <dbl>
##  1 1988-09-01      30.7  1988
##  2 1988-09-02      84.8  1988
##  3 1988-09-03     119.   1988
##  4 1988-09-04     139.   1988
##  5 1988-09-05      87.5  1988
##  6 1988-09-06      74.3  1988
##  7 1988-09-07      56.1  1988
##  8 1988-09-08      70.2  1988
##  9 1988-09-09      56.1  1988
## 10 1988-09-10      43.1  1988
## # … with 4,373 more rows
…
Calculate the storage \(S_t\) according to Equation 5.5. Storage is appended as
a new column to the time series tibble using the function storage() with
discharge and the threshold as input values (Table 5.9).

q90 <- lfquantile(ngaruroro$discharge, exc.freq = 0.9) 

ng <- ngaruroro %>%
  mutate(
    storage = storage(discharge = discharge, threshold = q90)
  ) 

⊕Table 5.9 SPA calculation of drought deficit volumes and duration for River Ngaruroro at Kuripapango (NZ)

## # A tibble: 4,383 x 4
##    time       discharge  year storage
##    <date>         <dbl> <dbl>   <dbl>
##  1 1988-09-01      30.7  1988       0
##  2 1988-09-02      84.8  1988       0
##  3 1988-09-03     119.   1988       0
##  4 1988-09-04     139.   1988       0
##  5 1988-09-05      87.5  1988       0
##  6 1988-09-06      74.3  1988       0
##  7 1988-09-07      56.1  1988       0
##  8 1988-09-08      70.2  1988       0
##  9 1988-09-09      56.1  1988       0
## 10 1988-09-10      43.1  1988       0
## # … with 4,373 more rows

As long as the discharge is above, or equal to, the threshold, the storage is zero as only
flows below the \(Q_{90}\) contributes to the storage. This happens the first time on 1989-03-14 and lasts only two days.

ng %>%
  filter(storage > 0)

## # A tibble: 525 x 4
##    time       discharge  year storage
##    <date>         <dbl> <dbl>   <dbl>
##  1 1989-03-14      5.08  1988  0.0780
##  2 1989-03-15      5.20  1988  0.0350
##  3 1989-03-23      5.05  1988  0.115 
##  4 1989-03-24      4.89  1988  0.387 
##  5 1989-03-25      4.88  1988  0.669 
##  6 1989-03-26      5.09  1988  0.741 
##  7 1989-03-27      4.80  1988  1.10  
##  8 1989-03-28      4.64  1988  1.62  
##  9 1989-03-29      4.55  1988  2.24  
## 10 1989-03-30      5.11  1988  2.29  
## # … with 515 more rows

Filtering for storage > 0 and assigning new event numbers when the time increment
in the (filtered) time series suddenly changes allows us to identify a
series of uninterrupted sequences of positive \(S_t\).

ng <- ng %>%
  filter(storage > 0) %>%
  mutate(
    event = group_const_change(time)
  ) %>%
  print()

## # A tibble: 525 x 5
##    time       discharge  year storage event
##    <date>         <dbl> <dbl>   <dbl> <dbl>
##  1 1989-03-14      5.08  1988  0.0780     1
##  2 1989-03-15      5.20  1988  0.0350     1
##  3 1989-03-23      5.05  1988  0.115      2
##  4 1989-03-24      4.89  1988  0.387      2
##  5 1989-03-25      4.88  1988  0.669      2
##  6 1989-03-26      5.09  1988  0.741      2
##  7 1989-03-27      4.80  1988  1.10       2
##  8 1989-03-28      4.64  1988  1.62       2
##  9 1989-03-29      4.55  1988  2.24       2
## 10 1989-03-30      5.11  1988  2.29       2
## # … with 515 more rows
…
Figure 1.5: Figure x.xx The relationship between between discharge \(Q_t\) and storage \(Q_t\) for the third drought event starting 1989-05-24.

1.5.4 Results

An extract of the drought duration and deficit volumes for the 12-year series is given in the output below. Note that the time series starts with a flow value less than the threshold (not knowing the previous flow values), thus the first event should be omitted from the analysis. Even though the SPA procedure is pooling minor and dependent droughts, the obtained time series of events still contains a number of minor drought events.

1.5.5 Fast Track

ngaruroro %>%
  drought_events(threshold = q90, pooling = "sequent-peak") 

## # A tibble: 41 x 8
##    event first.day  last.day   duration dbt      volume  qmin tqmin     
##    <int> <date>     <date>     <drtn>   <drtn>    <dbl> <dbl> <date>    
##  1     1 1989-03-14 1989-03-15  1 days   2 days  0.0780  5.08 1989-03-14
##  2     2 1989-03-23 1989-05-04 38 days  43 days 39.8     3.3  1989-04-29
##  3     3 1989-05-18 1989-05-24  7 days   7 days  2.72    4.49 1989-05-23
##  4     4 1990-02-24 1990-03-09 14 days  14 days 11.7     3.87 1990-03-09
##  5     5 1990-04-12 1990-04-24 13 days  13 days  8.26    4.18 1990-04-23
##  6     6 1990-12-27 1991-01-29 29 days  34 days 23.2     3.80 1991-01-14
##  7     7 1991-02-11 1991-02-17  7 days   7 days  4.86    4.09 1991-02-16
##  8     8 1991-03-30 1991-04-09 10 days  11 days  4.38    4.47 1991-04-08
##  9     9 1991-12-19 1991-12-23  5 days   5 days  0.918   4.77 1991-12-22
## 10    10 1991-12-28 1991-12-29  1 days   2 days  0.0590  5.10 1991-12-28
## # … with 31 more rows
…
In order to compare features of groundwater droughts using groundwater level data from different boreholes, Bloomfield and Marchant (2013) introduced the Standardised Groundwater level Index (SGI). The SGI uses the normal scores transform (Everitt, 2002), a nonparametric normalisation method which assigns a value to ranked observation of groundwater levels for a given month from a given hydrograph. A non-parametric approach to standardisation was favoured by Bloomfield and Marchant (2013) as they showed that no consistent parametric models could be fitted to a wide range of groundwater hydrographs, and that even when a hydrograph for a single site is considered no consistent parametric model could be fitted for all months of the year. Unlike SPI, SGI is based on a continuous variable and requires no accumulation period, however, Bloomfield and Marchant (2013) defined an SPI accumulation period (\(q\), in months) that gave a maximum correlation between SPI and SGI for a given site.

There is no commonly agreed definition of groundwater drought status based on SGI. However, recently Bloomfield et al. (2019) defined any month with an SGI of −1 or less as being a groundwater drought month and periods of continuously negative SGI reach a monthly intensity of −1 or less was defined as an episode of groundwater by analogy with the World Meteorological Organisation definition of an SPI drought (WMO, 2012).

1.6.1 Load the data

Here we illustrate how to estimate SGI from a groundwater level time series using data from a well at Stonor Park, UK, previously described in Chapter 3. It is recommended that the standardisation is applied to data from a period of at least 30 years and that when comparing SGI from more than one site that standardisation is undertaken over a common time period. In this case, groundwater level data for Stonor Park is available for a 40 year period.

library(tidyverse)
library(lubridate)
library(hydroDrought)
stonor 

## # A tibble: 2,024 x 2
##    time       level
##    <date>     <dbl>
##  1 1969-12-28  75.0
##  2 1970-01-04  74.6
##  3 1970-01-11  74.2
##  4 1970-01-18  73.9
##  5 1970-01-25  73.6
##  6 1970-02-01  73.5
##  7 1970-02-08  73.7
##  8 1970-02-15  74.0
##  9 1970-02-22  74.2
## 10 1970-03-01  74.5
## # … with 2,014 more rows
…
Step 0: The estimation of SGI requires data to be on a regular time step, in this case we will be using monthly data. The level data (recorded as metres above sea level, m aSL) from Stonor Park is already approximately on a monthly basis so we have linearly interpolated the levels to the first day of each month. Use your interpolation method of choice, or if you have more frequent observations, such as those produced by data logging systems, to sub-set the data onto a monthly time step.

times <- seq(as.Date("1970-01-01"), as.Date("2009-12-01"), by = "1 month")

stonor.monthly <- approx(x = stonor$time, y = stonor$level, xout = times) %>%
  as_tibble() %>%
  rename(time = x, level = y) %>% 
  mutate(
    month = month(time, label = TRUE, abbr = FALSE)
  )

stonor.monthly

## # A tibble: 480 x 3
##    time       level month    
##    <date>     <dbl> <ord>    
##  1 1970-01-01  74.8 January  
##  2 1970-02-01  73.5 February 
##  3 1970-03-01  74.5 March    
##  4 1970-04-01  76.1 April    
##  5 1970-05-01  77.1 May      
##  6 1970-06-01  77.6 June     
##  7 1970-07-01  77.3 July     
##  8 1970-08-01  76.1 August   
##  9 1970-09-01  74.4 September
## 10 1970-10-01  72.8 October  
## # … with 470 more rows
…
Step 2: Order the level data for a given month from lowest to highest and estimate the standardised rank for each level, i.e. rank/number of observations in a given month + 1.

Step 3: Estimate the inverse standardised normal cumulative value (mean 1, s.d. 0) from the standardise rank for each level. This value is the SGI value. In Microsoft Excel this value is returned by the =NORM.S.INV(cell) function, in R it is returned by the qnorm() function.

x <- stonor.monthly %>%
  group_by(month) %>%
  mutate(
    rank = rank(level), 
    standardised.rank = rank / (n() + 1),
    sgi = qnorm(standardised.rank)
  )

x

## # A tibble: 480 x 6
## # Groups:   month [12]
##    time       level month      rank standardised.rank     sgi
##    <date>     <dbl> <ord>     <dbl>             <dbl>   <dbl>
##  1 1970-01-01  74.8 January      26             0.634  0.343 
##  2 1970-02-01  73.5 February     19             0.463 -0.0918
##  3 1970-03-01  74.5 March        16             0.390 -0.279 
##  4 1970-04-01  76.1 April        14             0.341 -0.408 
##  5 1970-05-01  77.1 May          16             0.390 -0.279 
##  6 1970-06-01  77.6 June         18             0.439 -0.153 
##  7 1970-07-01  77.3 July         19             0.463 -0.0918
##  8 1970-08-01  76.1 August       18             0.439 -0.153 
##  9 1970-09-01  74.4 September    16             0.390 -0.279 
## 10 1970-10-01  72.8 October      15             0.366 -0.343 
## # … with 470 more rows
…
1.6.4 Fast-Track

stonor.monthly %>% 
  group_by(month) %>%
  mutate(sgi = sgi(level))

## # A tibble: 480 x 4
## # Groups:   month [12]
##    time       level month         sgi
##    <date>     <dbl> <ord>       <dbl>
##  1 1970-01-01  74.8 January    0.343 
##  2 1970-02-01  73.5 February  -0.0918
##  3 1970-03-01  74.5 March     -0.279 
##  4 1970-04-01  76.1 April     -0.408 
##  5 1970-05-01  77.1 May       -0.279 
##  6 1970-06-01  77.6 June      -0.153 
##  7 1970-07-01  77.3 July      -0.0918
##  8 1970-08-01  76.1 August    -0.153 
##  9 1970-09-01  74.4 September -0.279 
## 10 1970-10-01  72.8 October   -0.343 
## # … with 470 more rows

1.7 Worked example 5.7: Rank and correlation coefficients

1.7.1 Loading the Data

library(tidyverse)
library(hydroDrought) 

r <- regional %>%
  dplyr::select(id, river, station, data = discharge) %>%
  print()

## # A tibble: 29 x 4
##    id     river       station          data                 
##    <chr>  <chr>       <chr>            <list>               
##  1 210039 Rabnitz     Piringsdorf      <tibble [16,436 × 2]>
##  2 210054 Rabnitz     Mannersdorf      <tibble [18,262 × 2]>
##  3 210062 Stoob       Oberpullendorf   <tibble [18,262 × 2]>
##  4 210088 Wulka       Wulkaprodersdorf <tibble [18,262 × 2]>
##  5 210211 Lafnitz     Dobersdorf       <tibble [23,741 × 2]>
##  6 210237 Pinka       Woppendorf       <tibble [23,741 × 2]>
##  7 210245 Tauchenbach Altschlaining    <tibble [18,262 × 2]>
##  8 210252 Tauchenbach Hannersdorf      <tibble [23,741 × 2]>
##  9 210286 Strem       Güssing          <tibble [14,610 × 2]>
## 10 210294 Strem       Heiligenbrunn    <tibble [23,741 × 2]>
## # … with 19 more rows
…
