Chapter 10 | Hydrological Drought (2nd Edition)
…
library(tidyverse)
library(lubridate)
library(hydroDrought)

### Filter to a specific period
guadiana_period <- guadiana %>%
    dplyr::select(time, discharge = Qsim) %>%
    mutate(
        year = water_year(time)
    ) %>%
    filter(year >= 1960,  year <= 2000) %>%

print(guadiana_period)

## # A tibble: 14,976 x 3
##    time       discharge  year
##    <date>         <dbl> <dbl>
##  1 1960-01-01     0.153  1960
##  2 1960-01-02     0.148  1960
##  3 1960-01-03     0.144  1960
##  4 1960-01-04     0.14   1960
##  5 1960-01-05     0.136  1960
##  6 1960-01-06     0.133  1960
##  7 1960-01-07     0.13   1960
##  8 1960-01-08     0.128  1960
##  9 1960-01-09     0.129  1960
## 10 1960-01-10     0.139  1960
## # … with 14,966 more rows

range(guadiana_period$time)

## [1] "1960-01-01" "2000-12-31"

The benchmark time series comprises the uninfluenced, naturalized discharge \(Q_{sim}\). Note that benchmark time series can be calculated from a paired catchment analysis, an upstream-downstream comparison, model naturalisation, or pre-post disturbance analysis (Sect. 10.4.1 and 10.5.1) or from model scenarios (Sect. 10.4.3, 4 and 10.5.3, 4). The benchmark time series for this catchment are modelled as described in Sect. XX.

benchmark <- guadiana_period  %>%
    filter(year >= 1981,  year <= 2000) %>%
  print()

## # A tibble: 7,305 x 3
##    time       discharge  year
##    <date>         <dbl> <dbl>
##  1 1981-01-01     0.013  1981
##  2 1981-01-02     0.013  1981
##  3 1981-01-03     0.013  1981
##  4 1981-01-04     0.013  1981
##  5 1981-01-05     0.013  1981
##  6 1981-01-06     0.013  1981
##  7 1981-01-07     0.013  1981
##  8 1981-01-08     0.012  1981
##  9 1981-01-09     0.012  1981
## 10 1981-01-10     0.012  1981
## # … with 7,295 more rows

The human-influenced time series is basically the time series of observed discharge \(Q_{obs}\) from the Upper-Guadiana catchment.

influenced <- guadiana_period %>%
    filter(year >= 1991,  year <= 2000) %>%
    print()

## # A tibble: 3,653 x 3
##    time       discharge  year
##    <date>         <dbl> <dbl>
##  1 1991-01-01     0.019  1991
##  2 1991-01-02     0.019  1991
##  3 1991-01-03     0.018  1991
##  4 1991-01-04     0.018  1991
##  5 1991-01-05     0.018  1991
##  6 1991-01-06     0.017  1991
##  7 1991-01-07     0.017  1991
##  8 1991-01-08     0.017  1991
##  9 1991-01-09     0.017  1991
## 10 1991-01-10     0.017  1991
## # … with 3,643 more rows

Threshold calculation

Here we are taking the benchmark time series. First we are smoothing the column discharge with a 30-day moving average. The threshold itself is calculated as a daily varying \(Q_{80}\) yielding a dataset with a row for each day of the year and the appropriate \(Q_{80}\) in the column named threshold.

threshold <- guadiana_period %>%
  # applying a 30-day moving average smoother
  mutate(discharge = moving_average(discharge, n = 30, sides = "center")) %>%
  
  # computing the Q80 for each day of the year
  var_threshold(vary.by = "day", fun = lfquantile, exc.freq = 0.80) 

print(threshold)

## # A tibble: 366 x 2
##       day threshold
##  * <date>     <dbl>
##  1 -01-01    0.0172
##  2 -01-02    0.0184
##  3 -01-03    0.0184
##  4 -01-04    0.0187
##  5 -01-05    0.0190
##  6 -01-06    0.0194
##  7 -01-07    0.0197
##  8 -01-08    0.0200
##  9 -01-09    0.0203
## 10 -01-10    0.0206
## # … with 356 more rows
…
# calculate the drought characteristics for the benchmark time series
drought.char$benchmark <- summarize_dc(events$benchmark)

For the Upper-Guadiana, these would be the drought events of the benchmark time series. Note that this calculation can be applied for a different time period than was used to calculate the benchmark threshold (for example, for Upper-Guadiana, we are using the period 1981-2000). Events numbers that are missing in the sequence are minor drought events that have been filtered out.

print(events$benchmark)

## # A tibble: 32 x 9
##    event first.day  last.day   duration dbt       volume  qmin tqmin      pooled
##    <int> <date>     <date>     <drtn>   <drtn>     <dbl> <dbl> <date>      <dbl>
##  1     1 1981-01-01 1981-04-22 112 days 112 days 100349. 0.01  1981-02-04      0
##  2     2 1981-06-09 1981-12-28 203 days 187 days  84024. 0     1981-11-23      4
##  3     5 1982-05-01 1982-06-01  32 days  30 days   7235. 0.017 1982-05-25      1
##  4     6 1982-06-25 1982-10-19 117 days 106 days  14406. 0     1982-10-07      3
##  5     7 1983-01-31 1983-11-22 296 days 296 days 202991. 0     1983-09-20      0
##  6     8 1983-12-03 1983-12-17  15 days  15 days   5915. 0.009 1983-12-13      0
##  7     9 1984-02-17 1984-02-27  11 days  11 days   3787. 0.018 1984-02-22      0
##  8    10 1984-10-22 1984-11-03  13 days  11 days    533. 0.007 1984-10-22      1
##  9    12 1985-10-12 1985-12-25  75 days  66 days  17653. 0.004 1985-11-12      2
## 10    13 1986-11-29 1987-01-11  44 days  44 days  22026. 0.009 1987-01-08      0
## # … with 22 more rows
…
