5 Chapter 12 | Hydrological Drought (2nd Edition)
…
## Push these into the function
library(gridExtra)
library(grid)

spi_de <- spi_de %>%
    filter(month == 7)

### Merge dataframes using a full join (i.e. all records are included, even if data is missing)
spi_impacts <- spi_de %>%
    full_join(impacts_de, by = "year")  %>% ### Join on year
    drop_na(impact) %>%                     ### Drop rows with NA in the impact column
    print(spi_impacts)                      ### Check results

## # A tibble: 172 x 11
##    date        year month index_val index index_type index_months country impact_count nuts_n impact
##    <date>     <dbl> <dbl>     <dbl> <chr> <chr>      <chr>        <chr>          <int>  <int> <lgl> 
##  1 1970-07-01  1970     7     0.364 spei… spei       12           DE                 0     13 FALSE 
##  2 1971-07-01  1971     7    -0.605 spei… spei       12           DE                 0     13 FALSE 
##  3 1972-07-01  1972     7    -0.741 spei… spei       12           DE                 0     13 FALSE 
##  4 1973-07-01  1973     7    -0.758 spei… spei       12           DE                 0     13 FALSE 
##  5 1974-07-01  1974     7    -0.295 spei… spei       12           DE                 0     13 FALSE 
##  6 1975-07-01  1975     7     1.25  spei… spei       12           DE                 0     13 FALSE 
##  7 1976-07-01  1976     7    -1.88  spei… spei       12           DE                 5     13 TRUE  
##  8 1977-07-01  1977     7    -0.299 spei… spei       12           DE                 0     13 FALSE 
##  9 1978-07-01  1978     7     0.274 spei… spei       12           DE                 0     13 FALSE 
## 10 1979-07-01  1979     7     0.763 spei… spei       12           DE                 0     13 FALSE 
## # … with 162 more rows
…
It is now possible to make predictions based on this relationship for our fitting period or for any new values of SPI or SPEI.

### Use the SPEI3 regression to predict the likelihood of an impact
### Keep the standard error for confidence intervals around prediction
predict_ts <- predict(spei_3_fit, newdata = fit_data, type = "link", se = TRUE)

### Add in prediction and confidence intervals
predict_df <- fit_data %>%
    dplyr::mutate(predict = plogis(predict_ts$fit)) %>%
    dplyr::mutate(predict_upper = plogis(predict_ts$fit + (qnorm(0.025) * predict_ts$se.fit))) %>% 
    dplyr::mutate(predict_lower = plogis(predict_ts$fit - (qnorm(0.025) * predict_ts$se.fit))) %>%
    dplyr::select(-spi_3, -spei_12, -spi_12) %>%
    print()

## # A tibble: 43 x 8
##    date        year month impact   spei_3 predict predict_upper predict_lower
##    <date>     <dbl> <dbl> <lgl>     <dbl>   <dbl>         <dbl>         <dbl>
##  1 1970-07-01  1970     7 FALSE  -0.211   0.0801      0.0207           0.264 
##  2 1971-07-01  1971     7 FALSE  -0.171   0.0723      0.0177           0.253 
##  3 1972-07-01  1972     7 FALSE   1.05    0.00266     0.0000819        0.0801
##  4 1973-07-01  1973     7 FALSE  -0.175   0.0730      0.0179           0.254 
##  5 1974-07-01  1974     7 FALSE   1.14    0.00207     0.0000540        0.0739
##  6 1975-07-01  1975     7 FALSE   0.0892  0.0366      0.00599          0.193 
##  7 1976-07-01  1976     7 TRUE   -1.85    0.889       0.427            0.988 
##  8 1977-07-01  1977     7 FALSE  -0.415   0.132       0.0443           0.335 
##  9 1978-07-01  1978     7 FALSE   0.00736 0.0455      0.00847          0.210 
## 10 1979-07-01  1979     7 FALSE  -0.328   0.107       0.0323           0.301 
## # … with 33 more rows
…
