3 Chapter 7 | Hydrological Drought (2nd Edition)
…
### Insert columns for trend fit and residuals
elbe_annual <- elbe_annual %>%
    mutate(fitted = fitted(elbe_lm)) %>%
    mutate(resid = resid(elbe_lm)) %>%
    print()

## # A tibble: 144 x 6
## # Groups:   river [1]
##    river  year min_m3s mean_m3s fitted resid
##    <chr> <dbl>   <dbl>    <dbl>  <dbl> <dbl>
##  1 Elbe   1875     230     583.   274. -43.7
##  2 Elbe   1876     237     912.   274. -36.6
##  3 Elbe   1877     296     695.   274.  22.4
##  4 Elbe   1878     296     636.   274.  22.4
##  5 Elbe   1879     327     805.   274.  53.5
##  6 Elbe   1880     330     823.   273.  56.5
##  7 Elbe   1881     327     918.   273.  53.6
##  8 Elbe   1882     345     735.   273.  71.6
##  9 Elbe   1883     298     724.   273.  24.6
## 10 Elbe   1884     292     680.   273.  18.7
## # … with 134 more rows
…
### Filter to the rivers and create columns for dates
flow_df <- international %>%
    filter(river == "Gota") %>%
    dplyr::select(river, data) %>%
    unnest(cols = data) %>%
    mutate(
        year = year(time),
        jdate = yday(time)
    )  %>%
    print()

## # A tibble: 61,498 x 5
##    river time       discharge  year jdate
##    <chr> <date>         <dbl> <dbl> <dbl>
##  1 Gota  1850-01-01       506  1850     1
##  2 Gota  1850-01-02       506  1850     2
##  3 Gota  1850-01-03       502  1850     3
##  4 Gota  1850-01-04       502  1850     4
##  5 Gota  1850-01-05       502  1850     5
##  6 Gota  1850-01-06       502  1850     6
##  7 Gota  1850-01-07       496  1850     7
##  8 Gota  1850-01-08       496  1850     8
##  9 Gota  1850-01-09       496  1850     9
## 10 Gota  1850-01-10       496  1850    10
## # … with 61,488 more rows

### Group by year and river and then calculate min annual flow
flow_annual <- flow_df %>%
    group_by(river, year) %>%
    summarise(min_m3s = min(discharge, na.rm=TRUE), .groups = "drop_last") %>%
    print() %>%
    ungroup()

## # A tibble: 169 x 3
## # Groups:   river [1]
##    river  year min_m3s
##    <chr> <dbl>   <dbl>
##  1 Gota   1850     471
##  2 Gota   1851     500
##  3 Gota   1852     565
##  4 Gota   1853     591
##  5 Gota   1854     347
##  6 Gota   1855     316
##  7 Gota   1856     366
##  8 Gota   1857     401
##  9 Gota   1858     316
## 10 Gota   1859     310
## # … with 159 more rows
…
### Filter to the rivers and create columns for dates
flow_df <- international %>%
    filter(river == "Gota") %>%
    dplyr::select(river, data) %>%
    unnest(cols = data) %>%
    mutate(
        year = year(time),
        jdate = yday(time)
    )  %>%
    print()

## # A tibble: 61,498 x 5
##    river time       discharge  year jdate
##    <chr> <date>         <dbl> <dbl> <dbl>
##  1 Gota  1850-01-01       506  1850     1
##  2 Gota  1850-01-02       506  1850     2
##  3 Gota  1850-01-03       502  1850     3
##  4 Gota  1850-01-04       502  1850     4
##  5 Gota  1850-01-05       502  1850     5
##  6 Gota  1850-01-06       502  1850     6
##  7 Gota  1850-01-07       496  1850     7
##  8 Gota  1850-01-08       496  1850     8
##  9 Gota  1850-01-09       496  1850     9
## 10 Gota  1850-01-10       496  1850    10
## # … with 61,488 more rows
…
Figure 3.5: Figure 7.12: Daily discharge at the Gota River station demonstrating a visually clear structural change.

3.3.2 Testing for a change point

To avoid this shift in temporal autocorrelation, let us focus on the annual minimum flow for the entire time series. We see a severe decrease in flow from 300-600 m3 s-1prior to the 1930s and 50-200 m3 s-1 after 1940 (Fig. 7.13). Note, that examples are not normally this clear. We can apply the Chow F-test to identify the change point.

### Group by year and river and then calculate min annual flow
flow_annual <- flow_df %>%
    group_by(river, year) %>%
    summarise(min_m3s = min(discharge, na.rm=TRUE), .groups = "drop_last") %>%
    print() %>%
    ungroup()

## # A tibble: 169 x 3
## # Groups:   river [1]
##    river  year min_m3s
##    <chr> <dbl>   <dbl>
##  1 Gota   1850     471
##  2 Gota   1851     500
##  3 Gota   1852     565
##  4 Gota   1853     591
##  5 Gota   1854     347
##  6 Gota   1855     316
##  7 Gota   1856     366
##  8 Gota   1857     401
##  9 Gota   1858     316
## 10 Gota   1859     310
## # … with 159 more rows
…
